{
  "project_info": {
    "project_number": "462952638131",
    "project_id": "foodbiz-87ff5",
    "storage_bucket": "foodbiz-87ff5.appspot.com"
  },
  "client": [
    {
      "client_info": {
        "mobilesdk_app_id": "1:462952638131:android:3e80dd243464861c27b2c6",
        "android_client_info": {
          "package_name": "com.hsmobile.foodbiz"
        }
      },
      "oauth_client": [
        {
          "client_id": "462952638131-37k58ke8dpau9n893iobl5fbpo0td264.apps.googleusercontent.com",
          "client_type": 1,
          "android_info": {
            "package_name": "com.hsmobile.foodbiz",
            "certificate_hash": "5741bef20087e8bb19ea76594673dd795dae4121"
          }
        },
        {
          "client_id": "462952638131-9j0ni1vvj0g15s7a3fgnhn16dg5o14ft.apps.googleusercontent.com",
          "client_type": 1,
          "android_info": {
            "package_name": "com.hsmobile.foodbiz",
            "certificate_hash": "6ba69742bfc7f0b75453a7f3d1d17b6f421dff6d"
          }
        },
        {
          "client_id": "462952638131-dc7vbcgmvmikerjuqevlhkaqu6h5cmdn.apps.googleusercontent.com",
          "client_type": 1,
          "android_info": {
            "package_name": "com.hsmobile.foodbiz",
            "certificate_hash": "182c1ae08dd4602e74440a8d28357a891928c045"
          }
        },
        {
          "client_id": "462952638131-duprioh7l5q3ad1gjsuva15bp5d2r55f.apps.googleusercontent.com",
          "client_type": 1,
          "android_info": {
            "package_name": "com.hsmobile.foodbiz",
            "certificate_hash": "07b04d0f1694c8da276a0bb303efeda800d3aab0"
          }
        },
        {
          "client_id": "462952638131-ifrkq35a7gfqgt9t0cr5f2l63r3k6a3p.apps.googleusercontent.com",
          "client_type": 1,
          "android_info": {
            "package_name": "com.hsmobile.foodbiz",
            "certificate_hash": "cce92fbcbe7157e1a70feef86bac6b94f1c38035"
          }
        },
        {
          "client_id": "462952638131-072pk6cbaugsgq0kcp64qb1dnu1o7b3a.apps.googleusercontent.com",
          "client_type": 3
        }
      ],
      "api_key": [
        {
          "current_key": "AIzaSyDBxedgZN0s5Eh7N30bBG2GzKdweruAW94"
        }
      ],
      "services": {
        "appinvite_service": {
          "other_platform_oauth_client": [
            {
              "client_id": "462952638131-072pk6cbaugsgq0kcp64qb1dnu1o7b3a.apps.googleusercontent.com",
              "client_type": 3
            }
          ]
        }
      }
    },
    {
      "client_info": {
        "mobilesdk_app_id": "1:462952638131:android:b97138341afd393f27b2c6",
        "android_client_info": {
          "package_name": "com.hsmobile.foodbiz.vendor"
        }
      },
      "oauth_client": [
        {
          "client_id": "462952638131-b3a7m639qll84ar2gafh166dj811thdu.apps.googleusercontent.com",
          "client_type": 1,
          "android_info": {
            "package_name": "com.hsmobile.foodbiz.vendor",
            "certificate_hash": "182c1ae08dd4602e74440a8d28357a891928c045"
          }
        },
        {
          "client_id": "462952638131-g5m73lsopoiu4lpmktrksr59ic6r5gd3.apps.googleusercontent.com",
          "client_type": 1,
          "android_info": {
            "package_name": "com.hsmobile.foodbiz.vendor",
            "certificate_hash": "cce92fbcbe7157e1a70feef86bac6b94f1c38035"
          }
        },
        {
          "client_id": "462952638131-072pk6cbaugsgq0kcp64qb1dnu1o7b3a.apps.googleusercontent.com",
          "client_type": 3
        }
      ],
      "api_key": [
        {
          "current_key": "AIzaSyDBxedgZN0s5Eh7N30bBG2GzKdweruAW94"
        }
      ],
      "services": {
        "appinvite_service": {
          "other_platform_oauth_client": [
            {
              "client_id": "462952638131-072pk6cbaugsgq0kcp64qb1dnu1o7b3a.apps.googleusercontent.com",
              "client_type": 3
            }
          ]
        }
      }
    }
  ],
  "configuration_version": "1"
}